EESchema Schematic File Version 4
EELAYER 30 0
EELAYER END
$Descr A4 11693 8268
encoding utf-8
Sheet 1 1
Title ""
Date ""
Rev ""
Comp ""
Comment1 ""
Comment2 ""
Comment3 ""
Comment4 ""
$EndDescr
$Comp
L AnCiSeNa-rescue:LED-Device-OpenCV_LED_module-rescue D1
U 1 1 616C6F88
P 6450 3200
F 0 "D1" V 6488 3083 50  0000 R CNN
F 1 "LED" V 6397 3083 50  0000 R CNN
F 2 "LED_THT:LED_D10.0mm" H 6450 3200 50  0001 C CNN
F 3 "~" H 6450 3200 50  0001 C CNN
	1    6450 3200
	0    -1   -1   0   
$EndComp
$Comp
L AnCiSeNa-rescue:Conn_01x02-Connector_Generic-OpenCV_LED_module-rescue J3
U 1 1 616CAADF
P 6400 4650
F 0 "J3" H 6320 4325 50  0000 C CNN
F 1 "NAPAJENI" H 6320 4416 50  0000 C CNN
F 2 "TerminalBlock:TerminalBlock_bornier-2_P5.08mm" H 6400 4650 50  0001 C CNN
F 3 "~" H 6400 4650 50  0001 C CNN
	1    6400 4650
	-1   0    0    1   
$EndComp
$Comp
L AnCiSeNa-rescue:GND-power-OpenCV_LED_module-rescue #PWR0101
U 1 1 616CB204
P 7000 4800
F 0 "#PWR0101" H 7000 4550 50  0001 C CNN
F 1 "GND" H 7005 4627 50  0000 C CNN
F 2 "" H 7000 4800 50  0001 C CNN
F 3 "" H 7000 4800 50  0001 C CNN
	1    7000 4800
	1    0    0    -1  
$EndComp
Wire Wire Line
	7450 4450 7450 4550
Wire Wire Line
	7450 4550 7650 4550
Wire Wire Line
	7650 4550 7650 4450
Wire Wire Line
	7750 4450 7750 4550
Wire Wire Line
	7750 4550 7650 4550
Connection ~ 7650 4550
Wire Wire Line
	8050 4550 8200 4550
$Comp
L AnCiSeNa-rescue:+5V-power-OpenCV_LED_module-rescue #PWR0104
U 1 1 616CCB04
P 8200 4550
F 0 "#PWR0104" H 8200 4400 50  0001 C CNN
F 1 "+5V" H 8215 4723 50  0000 C CNN
F 2 "" H 8200 4550 50  0001 C CNN
F 3 "" H 8200 4550 50  0001 C CNN
	1    8200 4550
	1    0    0    -1  
$EndComp
$Comp
L AnCiSeNa-rescue:GND-power-OpenCV_LED_module-rescue #PWR0105
U 1 1 616CCE49
P 7450 4600
F 0 "#PWR0105" H 7450 4350 50  0001 C CNN
F 1 "GND" H 7455 4427 50  0000 C CNN
F 2 "" H 7450 4600 50  0001 C CNN
F 3 "" H 7450 4600 50  0001 C CNN
	1    7450 4600
	1    0    0    -1  
$EndComp
Wire Wire Line
	7450 4600 7450 4550
Connection ~ 7450 4550
$Comp
L AnCiSeNa-rescue:C-Device-OpenCV_LED_module-rescue C2
U 1 1 616CD56E
P 7950 4650
F 0 "C2" H 8065 4696 50  0000 L CNN
F 1 "470nF" H 8065 4605 50  0000 L CNN
F 2 "Capacitor_SMD:C_1206_3216Metric_Pad1.33x1.80mm_HandSolder" H 7988 4500 50  0001 C CNN
F 3 "~" H 7950 4650 50  0001 C CNN
	1    7950 4650
	1    0    0    -1  
$EndComp
Wire Wire Line
	7950 4500 7950 4450
Wire Wire Line
	7850 4450 7850 4850
$Comp
L AnCiSeNa-rescue:GND-power-OpenCV_LED_module-rescue #PWR0106
U 1 1 616CED54
P 7950 4900
F 0 "#PWR0106" H 7950 4650 50  0001 C CNN
F 1 "GND" H 7955 4727 50  0000 C CNN
F 2 "" H 7950 4900 50  0001 C CNN
F 3 "" H 7950 4900 50  0001 C CNN
	1    7950 4900
	1    0    0    -1  
$EndComp
Wire Wire Line
	7950 4800 7950 4900
Wire Wire Line
	8050 4450 8050 4550
$Comp
L AnCiSeNa-rescue:R-Device-OpenCV_LED_module-rescue R4
U 1 1 616D1ABB
P 8400 4850
F 0 "R4" V 8350 4950 50  0000 L CNN
F 1 "10k" V 8400 4750 50  0000 L CNN
F 2 "Resistor_SMD:R_1206_3216Metric_Pad1.30x1.75mm_HandSolder" V 8330 4850 50  0001 C CNN
F 3 "~" H 8400 4850 50  0001 C CNN
	1    8400 4850
	0    1    1    0   
$EndComp
$Comp
L AnCiSeNa-rescue:R-Device-OpenCV_LED_module-rescue R3
U 1 1 616D1E5C
P 8200 5100
F 0 "R3" H 8100 4950 50  0000 L CNN
F 1 "1.84k" V 8200 5000 50  0000 L CNN
F 2 "Resistor_SMD:R_1206_3216Metric_Pad1.30x1.75mm_HandSolder" V 8130 5100 50  0001 C CNN
F 3 "~" H 8200 5100 50  0001 C CNN
	1    8200 5100
	-1   0    0    1   
$EndComp
Wire Wire Line
	7850 4850 8200 4850
Wire Wire Line
	8200 4950 8200 4850
Connection ~ 8200 4850
Wire Wire Line
	8200 4850 8250 4850
$Comp
L AnCiSeNa-rescue:GND-power-OpenCV_LED_module-rescue #PWR0107
U 1 1 616D38A9
P 8200 5300
F 0 "#PWR0107" H 8200 5050 50  0001 C CNN
F 1 "GND" H 8205 5127 50  0000 C CNN
F 2 "" H 8200 5300 50  0001 C CNN
F 3 "" H 8200 5300 50  0001 C CNN
	1    8200 5300
	1    0    0    -1  
$EndComp
Wire Wire Line
	8200 5300 8200 5250
Wire Wire Line
	8550 4950 8550 4850
Connection ~ 8550 4850
$Comp
L AnCiSeNa-rescue:GND-power-OpenCV_LED_module-rescue #PWR0109
U 1 1 616D52AB
P 8550 5300
F 0 "#PWR0109" H 8550 5050 50  0001 C CNN
F 1 "GND" H 8555 5127 50  0000 C CNN
F 2 "" H 8550 5300 50  0001 C CNN
F 3 "" H 8550 5300 50  0001 C CNN
	1    8550 5300
	1    0    0    -1  
$EndComp
Wire Wire Line
	8550 5300 8550 5250
Wire Wire Line
	6450 3350 6450 3600
Wire Wire Line
	6450 2700 6450 3050
$Comp
L AnCiSeNa-rescue:C-Device-OpenCV_LED_module-rescue C1
U 1 1 616C6F8F
P 5900 3450
F 0 "C1" H 6015 3496 50  0000 L CNN
F 1 "100nF" H 6015 3405 50  0000 L CNN
F 2 "Capacitor_SMD:C_1206_3216Metric_Pad1.33x1.80mm_HandSolder" H 5938 3300 50  0001 C CNN
F 3 "~" H 5900 3450 50  0001 C CNN
	1    5900 3450
	1    0    0    -1  
$EndComp
Wire Wire Line
	6100 3300 5900 3300
Connection ~ 5900 3300
Wire Wire Line
	5800 3300 5900 3300
$Comp
L AnCiSeNa-rescue:R-Device-OpenCV_LED_module-rescue R1
U 1 1 616C6F96
P 5750 2850
F 0 "R1" H 5650 3000 50  0000 L CNN
F 1 "56R" V 5750 2750 50  0000 L CNN
F 2 "Resistor_SMD:R_1206_3216Metric_Pad1.30x1.75mm_HandSolder" V 5680 2850 50  0001 C CNN
F 3 "~" H 5750 2850 50  0001 C CNN
	1    5750 2850
	1    0    0    -1  
$EndComp
Wire Wire Line
	5800 3000 5750 3000
Connection ~ 5900 3600
Wire Wire Line
	5900 3600 6450 3600
$Comp
L AnCiSeNa-rescue:GND-power-OpenCV_LED_module-rescue #PWR0110
U 1 1 616C6FAB
P 5900 3650
F 0 "#PWR0110" H 5900 3400 50  0001 C CNN
F 1 "GND" H 5905 3477 50  0000 C CNN
F 2 "" H 5900 3650 50  0001 C CNN
F 3 "" H 5900 3650 50  0001 C CNN
	1    5900 3650
	1    0    0    -1  
$EndComp
Wire Wire Line
	5900 3650 5900 3600
$Comp
L AnCiSeNa-rescue:GND-power-OpenCV_LED_module-rescue #PWR0113
U 1 1 616DD37B
P 7000 5500
F 0 "#PWR0113" H 7000 5250 50  0001 C CNN
F 1 "GND" H 7005 5327 50  0000 C CNN
F 2 "" H 7000 5500 50  0001 C CNN
F 3 "" H 7000 5500 50  0001 C CNN
	1    7000 5500
	1    0    0    -1  
$EndComp
$Comp
L AnCiSeNa-rescue:Conn_01x02-Connector_Generic-OpenCV_LED_module-rescue J2
U 1 1 616E01B8
P 8850 4650
F 0 "J2" H 8930 4642 50  0000 L CNN
F 1 "Raspberry_Pi4" H 8930 4551 50  0000 L CNN
F 2 "TerminalBlock:TerminalBlock_bornier-2_P5.08mm" H 8850 4650 50  0001 C CNN
F 3 "~" H 8850 4650 50  0001 C CNN
	1    8850 4650
	1    0    0    -1  
$EndComp
$Comp
L AnCiSeNa-rescue:+5V-power-OpenCV_LED_module-rescue #PWR0114
U 1 1 616E01BF
P 8650 4600
F 0 "#PWR0114" H 8650 4450 50  0001 C CNN
F 1 "+5V" H 8665 4773 50  0000 C CNN
F 2 "" H 8650 4600 50  0001 C CNN
F 3 "" H 8650 4600 50  0001 C CNN
	1    8650 4600
	1    0    0    -1  
$EndComp
Wire Wire Line
	8650 4600 8650 4650
$Comp
L AnCiSeNa-rescue:GND-power-OpenCV_LED_module-rescue #PWR0115
U 1 1 616E01C6
P 8650 4800
F 0 "#PWR0115" H 8650 4550 50  0001 C CNN
F 1 "GND" H 8800 4750 50  0000 C CNN
F 2 "" H 8650 4800 50  0001 C CNN
F 3 "" H 8650 4800 50  0001 C CNN
	1    8650 4800
	1    0    0    -1  
$EndComp
Wire Wire Line
	8650 4800 8650 4750
Wire Wire Line
	7000 5300 7000 5350
Wire Wire Line
	7000 5500 7000 5450
$Comp
L AnCiSeNa-rescue:Conn_01x02-Connector_Generic-OpenCV_LED_module-rescue J1
U 1 1 616DB91A
P 6800 5450
F 0 "J1" H 6880 5442 50  0000 L CNN
F 1 "Propojení osvětlení" H 6880 5351 50  0000 L CNN
F 2 "TerminalBlock:TerminalBlock_bornier-2_P5.08mm" H 6800 5450 50  0001 C CNN
F 3 "~" H 6800 5450 50  0001 C CNN
	1    6800 5450
	-1   0    0    1   
$EndComp
$Comp
L Regulator_Linear:LM317_TO-252 U1
U 1 1 618197EB
P 6100 3000
F 0 "U1" V 6146 3104 50  0000 L CNN
F 1 "LM317_TO-252" V 6055 3104 50  0000 L CNN
F 2 "Package_TO_SOT_SMD:TO-252-2" H 6100 3250 50  0001 C CIN
F 3 "http://www.ti.com/lit/ds/snvs774n/snvs774n.pdf" H 6100 3000 50  0001 C CNN
	1    6100 3000
	0    1    -1   0   
$EndComp
Wire Wire Line
	5750 2700 6100 2700
$Comp
L AnCiSeNa-rescue:C-Device-OpenCV_LED_module-rescue C3
U 1 1 61838174
P 6800 3250
F 0 "C3" H 6915 3296 50  0000 L CNN
F 1 "100nF" H 6915 3205 50  0000 L CNN
F 2 "Capacitor_SMD:C_1206_3216Metric_Pad1.33x1.80mm_HandSolder" H 6838 3100 50  0001 C CNN
F 3 "~" H 6800 3250 50  0001 C CNN
	1    6800 3250
	1    0    0    -1  
$EndComp
Wire Wire Line
	6800 2700 6450 2700
Wire Wire Line
	6800 2700 6800 3100
Wire Wire Line
	6450 3600 6800 3600
Wire Wire Line
	6800 3600 6800 3400
Connection ~ 6450 3600
$Comp
L AnCiSeNa-rescue:LED-Device-OpenCV_LED_module-rescue D2
U 1 1 6183E986
P 7950 3200
F 0 "D2" V 7988 3083 50  0000 R CNN
F 1 "LED" V 7897 3083 50  0000 R CNN
F 2 "LED_THT:LED_D10.0mm" H 7950 3200 50  0001 C CNN
F 3 "~" H 7950 3200 50  0001 C CNN
	1    7950 3200
	0    -1   -1   0   
$EndComp
Wire Wire Line
	7950 3350 7950 3600
Wire Wire Line
	7950 2700 7950 3050
$Comp
L AnCiSeNa-rescue:C-Device-OpenCV_LED_module-rescue C5
U 1 1 6183E98E
P 7400 3450
F 0 "C5" H 7515 3496 50  0000 L CNN
F 1 "100nF" H 7515 3405 50  0000 L CNN
F 2 "Capacitor_SMD:C_1206_3216Metric_Pad1.33x1.80mm_HandSolder" H 7438 3300 50  0001 C CNN
F 3 "~" H 7400 3450 50  0001 C CNN
	1    7400 3450
	1    0    0    -1  
$EndComp
Wire Wire Line
	7600 3300 7400 3300
Connection ~ 7400 3300
Wire Wire Line
	7300 3300 7400 3300
$Comp
L AnCiSeNa-rescue:R-Device-OpenCV_LED_module-rescue R2
U 1 1 6183E997
P 7250 2850
F 0 "R2" H 7150 3000 50  0000 L CNN
F 1 "56R" V 7250 2750 50  0000 L CNN
F 2 "Resistor_SMD:R_1206_3216Metric_Pad1.30x1.75mm_HandSolder" V 7180 2850 50  0001 C CNN
F 3 "~" H 7250 2850 50  0001 C CNN
	1    7250 2850
	1    0    0    -1  
$EndComp
Wire Wire Line
	7300 3000 7250 3000
Connection ~ 7400 3600
Wire Wire Line
	7400 3600 7950 3600
$Comp
L AnCiSeNa-rescue:GND-power-OpenCV_LED_module-rescue #PWR0102
U 1 1 6183E9A0
P 7400 3650
F 0 "#PWR0102" H 7400 3400 50  0001 C CNN
F 1 "GND" H 7405 3477 50  0000 C CNN
F 2 "" H 7400 3650 50  0001 C CNN
F 3 "" H 7400 3650 50  0001 C CNN
	1    7400 3650
	1    0    0    -1  
$EndComp
Wire Wire Line
	7400 3650 7400 3600
$Comp
L Regulator_Linear:LM317_TO-252 U3
U 1 1 6183E9AD
P 7600 3000
F 0 "U3" V 7646 3104 50  0000 L CNN
F 1 "LM317_TO-252" V 7555 3104 50  0000 L CNN
F 2 "Package_TO_SOT_SMD:TO-252-2" H 7600 3250 50  0001 C CIN
F 3 "http://www.ti.com/lit/ds/snvs774n/snvs774n.pdf" H 7600 3000 50  0001 C CNN
	1    7600 3000
	0    1    -1   0   
$EndComp
Wire Wire Line
	7250 2700 7600 2700
$Comp
L AnCiSeNa-rescue:C-Device-OpenCV_LED_module-rescue C7
U 1 1 6183E9B6
P 8300 3250
F 0 "C7" H 8415 3296 50  0000 L CNN
F 1 "100nF" H 8415 3205 50  0000 L CNN
F 2 "Capacitor_SMD:C_1206_3216Metric_Pad1.33x1.80mm_HandSolder" H 8338 3100 50  0001 C CNN
F 3 "~" H 8300 3250 50  0001 C CNN
	1    8300 3250
	1    0    0    -1  
$EndComp
Wire Wire Line
	8300 2700 7950 2700
Wire Wire Line
	8300 2700 8300 3100
Wire Wire Line
	7950 3600 8300 3600
Wire Wire Line
	8300 3600 8300 3400
Connection ~ 7950 3600
$Comp
L AnCiSeNa-rescue:LED-Device-OpenCV_LED_module-rescue D3
U 1 1 61844863
P 9400 3200
F 0 "D3" V 9438 3083 50  0000 R CNN
F 1 "LED" V 9347 3083 50  0000 R CNN
F 2 "LED_THT:LED_D10.0mm" H 9400 3200 50  0001 C CNN
F 3 "~" H 9400 3200 50  0001 C CNN
	1    9400 3200
	0    -1   -1   0   
$EndComp
Wire Wire Line
	9400 3350 9400 3600
Wire Wire Line
	9400 2700 9400 3050
$Comp
L AnCiSeNa-rescue:C-Device-OpenCV_LED_module-rescue C8
U 1 1 6184486B
P 8850 3450
F 0 "C8" H 8965 3496 50  0000 L CNN
F 1 "100nF" H 8965 3405 50  0000 L CNN
F 2 "Capacitor_SMD:C_1206_3216Metric_Pad1.33x1.80mm_HandSolder" H 8888 3300 50  0001 C CNN
F 3 "~" H 8850 3450 50  0001 C CNN
	1    8850 3450
	1    0    0    -1  
$EndComp
Wire Wire Line
	9050 3300 8850 3300
Connection ~ 8850 3300
Wire Wire Line
	8750 3300 8850 3300
$Comp
L AnCiSeNa-rescue:R-Device-OpenCV_LED_module-rescue R5
U 1 1 61844874
P 8700 2850
F 0 "R5" H 8600 3000 50  0000 L CNN
F 1 "56R" V 8700 2750 50  0000 L CNN
F 2 "Resistor_SMD:R_1206_3216Metric_Pad1.30x1.75mm_HandSolder" V 8630 2850 50  0001 C CNN
F 3 "~" H 8700 2850 50  0001 C CNN
	1    8700 2850
	1    0    0    -1  
$EndComp
Wire Wire Line
	8750 3000 8700 3000
Connection ~ 8850 3600
Wire Wire Line
	8850 3600 9400 3600
$Comp
L AnCiSeNa-rescue:GND-power-OpenCV_LED_module-rescue #PWR0111
U 1 1 6184487D
P 8850 3650
F 0 "#PWR0111" H 8850 3400 50  0001 C CNN
F 1 "GND" H 8855 3477 50  0000 C CNN
F 2 "" H 8850 3650 50  0001 C CNN
F 3 "" H 8850 3650 50  0001 C CNN
	1    8850 3650
	1    0    0    -1  
$EndComp
Wire Wire Line
	8850 3650 8850 3600
$Comp
L Regulator_Linear:LM317_TO-252 U4
U 1 1 6184488A
P 9050 3000
F 0 "U4" V 9096 3104 50  0000 L CNN
F 1 "LM317_TO-252" V 9005 3104 50  0000 L CNN
F 2 "Package_TO_SOT_SMD:TO-252-2" H 9050 3250 50  0001 C CIN
F 3 "http://www.ti.com/lit/ds/snvs774n/snvs774n.pdf" H 9050 3000 50  0001 C CNN
	1    9050 3000
	0    1    -1   0   
$EndComp
Wire Wire Line
	8700 2700 9050 2700
$Comp
L AnCiSeNa-rescue:C-Device-OpenCV_LED_module-rescue C9
U 1 1 61844893
P 9750 3250
F 0 "C9" H 9865 3296 50  0000 L CNN
F 1 "100nF" H 9865 3205 50  0000 L CNN
F 2 "Capacitor_SMD:C_1206_3216Metric_Pad1.33x1.80mm_HandSolder" H 9788 3100 50  0001 C CNN
F 3 "~" H 9750 3250 50  0001 C CNN
	1    9750 3250
	1    0    0    -1  
$EndComp
Wire Wire Line
	9750 2700 9400 2700
Wire Wire Line
	9750 2700 9750 3100
Wire Wire Line
	9400 3600 9750 3600
Wire Wire Line
	9750 3600 9750 3400
Connection ~ 9400 3600
Connection ~ 8650 4650
Wire Wire Line
	8550 4650 8550 4850
$Comp
L AnCiSeNa-rescue:LMZ22003-NUCLEO-F303RE U2
U 1 1 618A3DFD
P 7700 3900
F 0 "U2" V 7413 3422 50  0000 R CNN
F 1 "LMZ22003" V 7322 3422 50  0000 R CNN
F 2 "NUCLEO-303RE:NDW0007A" H 7700 3900 50  0001 C CNN
F 3 "" H 7700 3900 50  0001 C CNN
	1    7700 3900
	0    -1   -1   0   
$EndComp
$Comp
L AnCiSeNa-rescue:C-Device-OpenCV_LED_module-rescue C6
U 1 1 618CC98E
P 7100 4600
F 0 "C6" H 7100 4700 50  0000 L CNN
F 1 "10uF" H 7150 4500 50  0000 L CNN
F 2 "Capacitor_SMD:C_1206_3216Metric_Pad1.33x1.80mm_HandSolder" H 7138 4450 50  0001 C CNN
F 3 "~" H 7100 4600 50  0001 C CNN
	1    7100 4600
	1    0    0    -1  
$EndComp
$Comp
L Device:CP C11
U 1 1 618D42A6
P 8550 5100
F 0 "C11" H 8550 5200 50  0000 L CNN
F 1 "680uF" H 8550 5000 50  0000 L CNN
F 2 "Capacitor_THT:CP_Radial_D12.5mm_P5.00mm" H 8588 4950 50  0001 C CNN
F 3 "~" H 8550 5100 50  0001 C CNN
	1    8550 5100
	1    0    0    -1  
$EndComp
Connection ~ 7100 4450
Wire Wire Line
	6750 4450 7100 4450
$Comp
L Device:CP C4
U 1 1 618D47E5
P 6750 4600
F 0 "C4" H 6750 4700 50  0000 L CNN
F 1 "680uF" H 6800 4500 50  0000 L CNN
F 2 "Capacitor_THT:CP_Radial_D12.5mm_P5.00mm" H 6788 4450 50  0001 C CNN
F 3 "~" H 6750 4600 50  0001 C CNN
	1    6750 4600
	1    0    0    -1  
$EndComp
Wire Wire Line
	7100 4750 7000 4750
Wire Wire Line
	6750 4750 6600 4750
Wire Wire Line
	6600 4750 6600 4650
Connection ~ 6750 4750
Wire Wire Line
	6600 4550 6600 4450
Wire Wire Line
	6600 4450 6750 4450
Connection ~ 6750 4450
$Comp
L AnCiSeNa-rescue:C-Device-OpenCV_LED_module-rescue C12
U 1 1 618E9DA8
P 8800 5100
F 0 "C12" H 8800 5200 50  0000 L CNN
F 1 "10uF" H 8800 5000 50  0000 L CNN
F 2 "Capacitor_SMD:C_1206_3216Metric_Pad1.33x1.80mm_HandSolder" H 8838 4950 50  0001 C CNN
F 3 "~" H 8800 5100 50  0001 C CNN
	1    8800 5100
	1    0    0    -1  
$EndComp
Connection ~ 8550 4950
Wire Wire Line
	8550 4950 8800 4950
Wire Wire Line
	8800 5250 8550 5250
Connection ~ 8550 5250
Wire Wire Line
	8550 4650 8650 4650
Wire Wire Line
	7000 4750 7000 4800
Connection ~ 7000 4750
Wire Wire Line
	7000 4750 6750 4750
Wire Wire Line
	6450 2700 6450 2550
Connection ~ 6450 2700
Connection ~ 5750 3000
Wire Wire Line
	8550 3000 8700 3000
Connection ~ 9400 2700
Connection ~ 8700 3000
Wire Wire Line
	7950 2700 7950 2550
Wire Wire Line
	7950 2550 7100 2550
Wire Wire Line
	7100 2550 7100 3000
Wire Wire Line
	7100 3000 7250 3000
Connection ~ 7950 2700
Connection ~ 7250 3000
Wire Wire Line
	8550 2550 9400 2550
Wire Wire Line
	9400 2550 9400 2700
Wire Wire Line
	8550 2550 8550 3000
Wire Wire Line
	6450 2550 5550 2550
Wire Wire Line
	5550 2550 5550 3000
Wire Wire Line
	5550 3000 5750 3000
$Comp
L power:+9V #PWR?
U 1 1 623A6F20
P 5800 3300
F 0 "#PWR?" H 5800 3150 50  0001 C CNN
F 1 "+9V" H 5750 3450 50  0000 C CNN
F 2 "" H 5800 3300 50  0001 C CNN
F 3 "" H 5800 3300 50  0001 C CNN
	1    5800 3300
	1    0    0    -1  
$EndComp
$Comp
L power:+9V #PWR?
U 1 1 623A7A24
P 7300 3300
F 0 "#PWR?" H 7300 3150 50  0001 C CNN
F 1 "+9V" H 7250 3450 50  0000 C CNN
F 2 "" H 7300 3300 50  0001 C CNN
F 3 "" H 7300 3300 50  0001 C CNN
	1    7300 3300
	1    0    0    -1  
$EndComp
$Comp
L power:+9V #PWR?
U 1 1 623A9334
P 8750 3300
F 0 "#PWR?" H 8750 3150 50  0001 C CNN
F 1 "+9V" H 8700 3450 50  0000 C CNN
F 2 "" H 8750 3300 50  0001 C CNN
F 3 "" H 8750 3300 50  0001 C CNN
	1    8750 3300
	1    0    0    -1  
$EndComp
Wire Wire Line
	7100 4450 7350 4450
$Comp
L power:+9V #PWR?
U 1 1 623AF3F0
P 7100 4450
F 0 "#PWR?" H 7100 4300 50  0001 C CNN
F 1 "+9V" H 7050 4600 50  0000 C CNN
F 2 "" H 7100 4450 50  0001 C CNN
F 3 "" H 7100 4450 50  0001 C CNN
	1    7100 4450
	1    0    0    -1  
$EndComp
$Comp
L power:+9V #PWR?
U 1 1 62426C63
P 7000 5300
F 0 "#PWR?" H 7000 5150 50  0001 C CNN
F 1 "+9V" H 6950 5450 50  0000 C CNN
F 2 "" H 7000 5300 50  0001 C CNN
F 3 "" H 7000 5300 50  0001 C CNN
	1    7000 5300
	1    0    0    -1  
$EndComp
$EndSCHEMATC
